First steps with the mipplot package
…
This vignette uses a subset of the SR1.5 data. This data is included in the mipplot package and does not need to be downloaded separately.

load library

Load the mipplot and tidyverse packages.

library(mipplot)
library(tidyverse)

load sample data

The SR1.5 subset data that comes with the mipplot package can be accessed under the name mipplot::sr15_sample_data. Lets take a look at whats inside.

sr15_sample_data
#> # A tibble: 396,425 x 7
#>    model       scenario region variable                unit         period value
#>    <fct>       <fct>    <fct>  <fct>                   <fct>         <int> <dbl>
#>  1 AIM/CGE 2.0 SSP1-19  World  Emissions|CO2           Mt CO2/yr      2000    NA
#>  2 AIM/CGE 2.0 SSP1-19  World  Final Energy            EJ/yr          2000    NA
#>  3 AIM/CGE 2.0 SSP1-19  World  Population              million        2000    NA
#>  4 AIM/CGE 2.0 SSP1-19  World  Price|Carbon            US$2010/t C~   2000    NA
#>  5 AIM/CGE 2.0 SSP1-19  World  Primary Energy          EJ/yr          2000    NA
#>  6 AIM/CGE 2.0 SSP1-19  World  Primary Energy|Biomass  EJ/yr          2000    NA
#>  7 AIM/CGE 2.0 SSP1-19  World  Primary Energy|Coal     EJ/yr          2000    NA
#>  8 AIM/CGE 2.0 SSP1-19  World  Primary Energy|Fossil   EJ/yr          2000    NA
#>  9 AIM/CGE 2.0 SSP1-19  World  Primary Energy|Gas      EJ/yr          2000    NA
#> 10 AIM/CGE 2.0 SSP1-19  World  Primary Energy|Geother~ EJ/yr          2000    NA
#> # ... with 396,415 more rows
…
Check the list of regions.

sr15_sample_data$region %>% levels
#> [1] "World"

Lets check the list of variables.

sr15_sample_data %>% select(variable, unit) %>% distinct
#> # A tibble: 35 x 2
#>    variable                  unit         
#>    <fct>                     <fct>        
#>  1 Emissions|CO2             Mt CO2/yr    
#>  2 Final Energy              EJ/yr        
#>  3 Population                million      
#>  4 Price|Carbon              US$2010/t CO2
#>  5 Primary Energy            EJ/yr        
#>  6 Primary Energy|Biomass    EJ/yr        
#>  7 Primary Energy|Coal       EJ/yr        
#>  8 Primary Energy|Fossil     EJ/yr        
#>  9 Primary Energy|Gas        EJ/yr        
#> 10 Primary Energy|Geothermal EJ/yr        
#> # ... with 25 more rows

Data Filtering

This section explains how to filter data, using the example of extracting only models that contain SSP2 scenarios.

sr15_sample_data %>% 
  filter(str_detect(scenario, "^SSP2")) %>%
  select(model, scenario) %>% distinct
#> # A tibble: 34 x 2
#>    model       scenario     
#>    <fct>       <fct>        
#>  1 AIM/CGE 2.0 SSP2-19      
#>  2 AIM/CGE 2.0 SSP2-26      
#>  3 AIM/CGE 2.0 SSP2-34      
#>  4 AIM/CGE 2.0 SSP2-45      
#>  5 AIM/CGE 2.0 SSP2-60      
#>  6 AIM/CGE 2.0 SSP2-Baseline
#>  7 GCAM 4.2    SSP2-19      
#>  8 GCAM 4.2    SSP2-26      
#>  9 GCAM 4.2    SSP2-34      
#> 10 GCAM 4.2    SSP2-45      
#> # ... with 24 more rows
…
